﻿30/09/2015,11:30:00,30/09/2015,12:29:00,Induction Activity,COM-U-YR3-4-5-IN01/01,Deputy HoD's Welcome Meeting for Returning Year 3 Students
01/10/2015,18:30:00,01/10/2015,19:29:00,Meeting,HS-H-C-FireSafe-02/01,Upper year RESIDENT Fire Safety Talk in Central Hall - attend if you are living on campus
02/10/2015,14:30:00,02/10/2015,16:29:00,Practical,COM00013H-AP1/01,Project
05/10/2015,10:30:00,05/10/2015,11:29:00,Lecture,COM00016H-AL1/01,IAPT
05/10/2015,11:30:00,05/10/2015,12:29:00,Lecture,COM00018H-AL1/01,DAMS
05/10/2015,15:30:00,05/10/2015,16:29:00,Lecture,COM00006H-AL1/01,ICOT
05/10/2015,17:30:00,05/10/2015,18:29:00,Lecture,COM00001H-AL1/01,ARTS
06/10/2015,09:30:00,06/10/2015,11:29:00,Practical,COM00018H-AP1/01,DAMS
06/10/2015,11:30:00,06/10/2015,12:29:00,Lecture,COM00006H-AL2/01,ICOT
07/10/2015,11:30:00,07/10/2015,13:29:00,Practical,COM00016H-AP1/01,IAPT
08/10/2015,10:30:00,08/10/2015,11:29:00,Optional Activity,COM00018H-AS1/01,DAMS
08/10/2015,11:30:00,08/10/2015,12:29:00,Lecture,COM00001H-AL3/01,ARTS
09/10/2015,10:30:00,09/10/2015,11:29:00,Lecture,COM00001H-AL2a/01,ARTS
09/10/2015,12:30:00,09/10/2015,13:29:00,Lecture,COM00016H-AL2a/01,IAPT
12/10/2015,10:30:00,12/10/2015,11:29:00,Lecture,COM00016H-AL1/01,IAPT
12/10/2015,17:30:00,12/10/2015,18:29:00,Lecture,COM00001H-AL1/01,ARTS
13/10/2015,09:30:00,13/10/2015,11:29:00,Practical,COM00018H-AP1/01,DAMS
13/10/2015,11:30:00,13/10/2015,12:29:00,Lecture,COM00006H-AL3/01,ICOT
13/10/2015,16:30:00,13/10/2015,18:29:00,Practical,COM00006H-AP1/01,ICOT
14/10/2015,11:30:00,14/10/2015,13:29:00,Practical,COM00016H-AP1/01,IAPT
15/10/2015,10:30:00,15/10/2015,11:29:00,Optional Activity,COM00018H-AS1/01,DAMS
15/10/2015,11:30:00,15/10/2015,12:29:00,Lecture,COM00001H-AL3/01,ARTS
15/10/2015,12:30:00,15/10/2015,13:29:00,Practical,COM00001H-AP1/01,ARTS
15/10/2015,14:30:00,15/10/2015,15:29:00,Lecture,COM00001H-AL2b/01,ARTS
16/10/2015,12:30:00,16/10/2015,13:29:00,Lecture,COM00016H-AL2b/01,IAPT
16/10/2015,16:30:00,16/10/2015,18:29:00,Practical,COM00013H-AP2/01,Project
19/10/2015,10:30:00,19/10/2015,11:29:00,Lecture,COM00016H-AL1/01,IAPT
19/10/2015,11:30:00,19/10/2015,12:29:00,Lecture,COM00001H-AL2c/01,ARTS
19/10/2015,15:30:00,19/10/2015,16:29:00,Lecture,COM00006H-AL1/01,ICOT
19/10/2015,17:30:00,19/10/2015,18:29:00,Lecture,COM00001H-AL1/01,ARTS
20/10/2015,09:30:00,20/10/2015,11:29:00,Practical,COM00018H-AP1/01,DAMS
20/10/2015,11:30:00,20/10/2015,12:29:00,Lecture,COM00006H-AL2/01,ICOT
20/10/2015,16:30:00,20/10/2015,18:29:00,Practical,COM00013H-AP3/01,Project
21/10/2015,11:30:00,21/10/2015,13:29:00,Practical,COM00016H-AP1/01,IAPT
22/10/2015,10:30:00,22/10/2015,11:29:00,Optional Activity,COM00018H-AS1/01,DAMS
22/10/2015,11:30:00,22/10/2015,12:29:00,Lecture,COM00001H-AL3/01,ARTS
22/10/2015,12:30:00,22/10/2015,13:29:00,Practical,COM00001H-AP1/01,ARTS
23/10/2015,12:30:00,23/10/2015,13:29:00,Lecture,COM00016H-AL2c/01,IAPT
26/10/2015,10:30:00,26/10/2015,11:29:00,Lecture,COM00016H-AL1/01,IAPT
26/10/2015,17:30:00,26/10/2015,18:29:00,Lecture,COM00001H-AL1/01,ARTS
27/10/2015,09:30:00,27/10/2015,11:29:00,Practical,COM00018H-AP1/01,DAMS
27/10/2015,11:30:00,27/10/2015,12:29:00,Lecture,COM00006H-AL3/01,ICOT
27/10/2015,14:30:00,27/10/2015,15:29:00,Lecture,COM00001H-AL2d/01,ARTS
27/10/2015,16:30:00,27/10/2015,18:29:00,Practical,COM00006H-AP1/01,ICOT
28/10/2015,11:30:00,28/10/2015,13:29:00,Practical,COM00016H-AP1/01,IAPT
29/10/2015,10:30:00,29/10/2015,11:29:00,Optional Activity,COM00018H-AS1/01,DAMS
29/10/2015,11:30:00,29/10/2015,12:29:00,Lecture,COM00001H-AL3/01,ARTS
29/10/2015,12:30:00,29/10/2015,13:29:00,Practical,COM00001H-AP1/01,ARTS
30/10/2015,12:30:00,30/10/2015,13:29:00,Lecture,COM00016H-AL2d/01,IAPT
02/11/2015,15:30:00,02/11/2015,16:29:00,Lecture,COM00006H-AL1/01,ICOT
02/11/2015,17:30:00,02/11/2015,18:29:00,Lecture,COM00001H-AL1/01,ARTS
03/11/2015,09:30:00,03/11/2015,11:29:00,Practical,COM00018H-AP1/01,DAMS
03/11/2015,11:30:00,03/11/2015,12:29:00,Lecture,COM00006H-AL2/01,ICOT
03/11/2015,14:30:00,03/11/2015,15:29:00,Lecture,COM00001H-AL2e/01,ARTS
03/11/2015,16:30:00,03/11/2015,18:29:00,Practical,COM00006H-AP2a/01,ICOT
05/11/2015,10:30:00,05/11/2015,11:29:00,Optional Activity,COM00018H-AS1/01,DAMS
05/11/2015,11:30:00,05/11/2015,12:29:00,Lecture,COM00001H-AL3/01,ARTS
05/11/2015,12:30:00,05/11/2015,13:29:00,Practical,COM00001H-AP1/01,ARTS
06/11/2015,10:30:00,06/11/2015,11:29:00,Lecture,COM00006H-AL3ba/01,ICOT
09/11/2015,15:30:00,09/11/2015,16:29:00,Lecture,COM00006H-AL1/01,ICOT
09/11/2015,17:30:00,09/11/2015,18:29:00,Lecture,COM00001H-AL1/01,ARTS
10/11/2015,09:30:00,10/11/2015,11:29:00,Practical,COM00018H-AP1/01,DAMS
10/11/2015,11:30:00,10/11/2015,12:29:00,Lecture,COM00006H-AL2/01,ICOT
10/11/2015,16:30:00,10/11/2015,18:29:00,Practical,COM00006H-AP2b/01,ICOT
11/11/2015,11:30:00,11/11/2015,12:29:00,Lecture,COM00006H-AL3bb/01,ICOT
12/11/2015,10:30:00,12/11/2015,11:29:00,Optional Activity,COM00018H-AS1/01,DAMS
12/11/2015,11:30:00,12/11/2015,12:29:00,Lecture,COM00001H-AL3/01,ARTS
12/11/2015,12:30:00,12/11/2015,13:29:00,Practical,COM00001H-AP1/01,ARTS
12/11/2015,14:30:00,12/11/2015,15:29:00,Lecture,COM00001H-AL2f/01,ARTS
13/11/2015,12:30:00,13/11/2015,13:29:00,Optional Activity,COM00016H-AD1/01,IAPT
13/11/2015,17:30:00,13/11/2015,18:29:00,Lecture,COM00013H-AL1/01,Project
16/11/2015,17:30:00,16/11/2015,18:29:00,Lecture,COM00001H-AL1/01,ARTS
17/11/2015,09:30:00,17/11/2015,11:29:00,Practical,COM00018H-AP1/01,DAMS
17/11/2015,11:30:00,17/11/2015,12:29:00,Lecture,COM00001H-AL2g/01,ARTS
18/11/2015,09:30:00,18/11/2015,12:29:00,Practical,COM00006H-AP3/01,ICOT
19/11/2015,10:30:00,19/11/2015,11:29:00,Optional Activity,COM00018H-AS1/01,DAMS
19/11/2015,11:30:00,19/11/2015,12:29:00,Lecture,COM00001H-AL3/01,ARTS
19/11/2015,12:30:00,19/11/2015,13:29:00,Practical,COM00001H-AP1/01,ARTS
20/11/2015,12:30:00,20/11/2015,13:29:00,Optional Activity,COM00016H-AD1/01,IAPT
20/11/2015,16:30:00,20/11/2015,18:29:00,Practical,COM00013H-AP4/01,Project
24/11/2015,09:30:00,24/11/2015,11:29:00,Practical,COM00018H-AP1/01,DAMS
26/11/2015,10:30:00,26/11/2015,11:29:00,Optional Activity,COM00018H-AS1/01,DAMS
26/11/2015,12:30:00,26/11/2015,13:29:00,Practical,COM00001H-AP1/01,ARTS
27/11/2015,12:30:00,27/11/2015,13:29:00,Optional Activity,COM00016H-AD1/01,IAPT
01/12/2015,09:30:00,01/12/2015,11:29:00,Practical,COM00018H-AP1/01,DAMS
03/12/2015,10:30:00,03/12/2015,11:29:00,Optional Activity,COM00018H-AS1/01,DAMS
03/12/2015,12:30:00,03/12/2015,13:29:00,Practical,COM00001H-AP1/01,ARTS
11/01/2016,11:30:00,11/01/2016,12:29:00,Lecture,COM00016H-AL3/01,IAPT
11/01/2016,14:30:00,11/01/2016,15:29:00,Lecture,COM00006H-AL4/01,ICOT
11/01/2016,17:30:00,11/01/2016,18:29:00,Lecture,COM00001H-AL4/01,ARTS
12/01/2016,09:30:00,12/01/2016,10:29:00,Lecture,COM00006H-AL5/01,ICOT
12/01/2016,12:30:00,12/01/2016,13:29:00,Lecture,COM00016H-AL4/01,IAPT
12/01/2016,13:30:00,12/01/2016,15:29:00,Practical,COM00018H-AP2a/01,DAMS
12/01/2016,15:30:00,12/01/2016,16:29:00,Lecture,COM00001H-AL5/01,ARTS
13/01/2016,11:30:00,13/01/2016,12:29:00,Seminar,COM00018H-AS2/01,DAMS
14/01/2016,11:30:00,14/01/2016,13:29:00,Practical,COM00016H-AP2/01,IAPT
18/01/2016,09:30:00,18/01/2016,11:29:00,Presentation,COM00013H-AP5/01,Projet
18/01/2016,11:30:00,18/01/2016,12:29:00,Lecture,COM00016H-AL3/01,IAPT
18/01/2016,14:30:00,18/01/2016,15:29:00,Lecture,COM00006H-AL6a/01,ICOT
18/01/2016,17:30:00,18/01/2016,18:29:00,Lecture,COM00001H-AL4/01,ARTS
19/01/2016,12:30:00,19/01/2016,13:29:00,Lecture,COM00016H-AL4/01,IAPT
19/01/2016,13:30:00,19/01/2016,15:29:00,Practical,COM00018H-AP2a/01,DAMS
19/01/2016,15:30:00,19/01/2016,16:29:00,Lecture,COM00001H-AL5/01,ARTS
20/01/2016,11:30:00,20/01/2016,12:29:00,Seminar,COM00018H-AS2/01,DAMS
21/01/2016,11:30:00,21/01/2016,13:29:00,Practical,COM00016H-AP2/01,IAPT
21/01/2016,13:30:00,21/01/2016,15:29:00,Practical,COM00006H-AP4/01,ICOT
22/01/2016,11:30:00,22/01/2016,13:29:00,Practical,COM00001H-AP2/01,ARTS
25/01/2016,11:30:00,25/01/2016,12:29:00,Lecture,COM00016H-AL3/01,IAPT
25/01/2016,14:30:00,25/01/2016,15:29:00,Lecture,COM00006H-AL4/01,ICOT
25/01/2016,17:30:00,25/01/2016,18:29:00,Lecture,COM00001H-AL4/01,ARTS
26/01/2016,09:30:00,26/01/2016,10:29:00,Lecture,COM00006H-AL5/01,ICOT
26/01/2016,12:30:00,26/01/2016,13:29:00,Lecture,COM00016H-AL4/01,IAPT
26/01/2016,13:30:00,26/01/2016,15:29:00,Practical,COM00018H-AP2a/01,DAMS
26/01/2016,15:30:00,26/01/2016,16:29:00,Lecture,COM00001H-AL5/01,ARTS
27/01/2016,11:30:00,27/01/2016,12:29:00,Seminar,COM00018H-AS2/01,DAMS
28/01/2016,11:30:00,28/01/2016,13:29:00,Practical,COM00016H-AP2/01,IAPT
29/01/2016,11:30:00,29/01/2016,13:29:00,Practical,COM00001H-AP2/01,ARTS
01/02/2016,11:30:00,01/02/2016,12:29:00,Lecture,COM00016H-AL3/01,IAPT
01/02/2016,14:30:00,01/02/2016,15:29:00,Lecture,COM00006H-AL6b/01,ICOT
02/02/2016,12:30:00,02/02/2016,13:29:00,Lecture,COM00016H-AL4/01,IAPT
02/02/2016,13:30:00,02/02/2016,15:29:00,Practical,COM00018H-AP2a/01,DAMS
02/02/2016,15:30:00,02/02/2016,16:29:00,Lecture,COM00001H-AL5/01,ARTS
03/02/2016,11:30:00,03/02/2016,12:29:00,Seminar,COM00018H-AS2/01,DAMS
04/02/2016,11:30:00,04/02/2016,13:29:00,Practical,COM00016H-AP2/01,IAPT
04/02/2016,13:30:00,04/02/2016,15:29:00,Practical,COM00006H-AP4/01,ICOT
05/02/2016,11:30:00,05/02/2016,13:29:00,Practical,COM00001H-AP2/01,ARTS
08/02/2016,14:30:00,08/02/2016,15:29:00,Lecture,COM00006H-AL4/01,ICOT
08/02/2016,17:30:00,08/02/2016,18:29:00,Lecture,COM00001H-AL4/01,ARTS
09/02/2016,09:30:00,09/02/2016,10:29:00,Lecture,COM00006H-AL5/01,ICOT
09/02/2016,12:30:00,09/02/2016,13:29:00,Reminder,COM-U-FINALIST-C04spr/01,CV skills
09/02/2016,13:30:00,09/02/2016,15:29:00,Practical,COM00018H-AP2b/01,DAMS
09/02/2016,15:30:00,09/02/2016,16:29:00,Lecture,COM00001H-AL5/01,ARTS
10/02/2016,11:30:00,10/02/2016,12:29:00,Seminar,COM00018H-AS2/01,DAMS
11/02/2016,14:30:00,11/02/2016,15:29:00,Lecture,COM00006H-AL6c/01,ICOT
12/02/2016,11:30:00,12/02/2016,13:29:00,Practical,COM00001H-AP2/01,ARTS
12/02/2016,13:30:00,12/02/2016,15:29:00,Practical,COM00006H-AP5b/01,ICOT
15/02/2016,11:30:00,15/02/2016,12:29:00,Careers,COM-z-ESR-Sp7-ICOT-6H/01,Exam Script Review ICOT MAIG
15/02/2016,14:30:00,15/02/2016,15:29:00,Lecture,COM00006H-AL4/01,ICOT
15/02/2016,17:30:00,15/02/2016,18:29:00,Lecture,COM00001H-AL4/01,ARTS
16/02/2016,09:30:00,16/02/2016,10:29:00,Lecture,COM00006H-AL5/01,ICOT
16/02/2016,13:30:00,16/02/2016,15:29:00,Practical,COM00018H-AP2b/01,DAMS
16/02/2016,15:30:00,16/02/2016,16:29:00,Lecture,COM00001H-AL5/01,ARTS
17/02/2016,11:30:00,17/02/2016,12:29:00,Seminar,COM00018H-AS2/01,DAMS
17/02/2016,12:30:00,17/02/2016,13:29:00,Reminder,COM-U-FINALIST-C05spr/01,Interview skills
17/02/2016,15:00:00,17/02/2016,15:59:00,Careers,COM-z-ESR-Sp7-ARTS-1H/01,Exam Script Review ARTS PCOC
18/02/2016,11:00:00,18/02/2016,11:59:00,Optional Activity,COM00016H-AD2a/01,IAPT
18/02/2016,14:30:00,18/02/2016,15:29:00,Lecture,COM00006H-AL6d/01,ICOT
19/02/2016,11:30:00,19/02/2016,13:29:00,Practical,COM00001H-AP2/01,ARTS
19/02/2016,13:30:00,19/02/2016,15:29:00,Practical,COM00006H-AP5/01,ICOT
22/02/2016,17:30:00,22/02/2016,18:29:00,Lecture,COM00001H-AL4/01,ARTS
23/02/2016,13:30:00,23/02/2016,15:29:00,Practical,COM00018H-AP2b/01,DAMS
23/02/2016,15:30:00,23/02/2016,16:29:00,Lecture,COM00001H-AL5/01,ARTS
24/02/2016,11:30:00,24/02/2016,12:29:00,Seminar,COM00018H-AS2/01,DAMS
25/02/2016,11:30:00,25/02/2016,12:29:00,Optional Activity,COM00016H-AD2/01,IAPT
25/02/2016,12:30:00,25/02/2016,15:29:00,Practical,COM00006H-AP6/01,ICOT
26/02/2016,11:30:00,26/02/2016,13:29:00,Practical,COM00001H-AP2/01,ARTS
29/02/2016,17:30:00,29/02/2016,18:29:00,Lecture,COM00001H-AL4/01,ARTS
01/03/2016,13:30:00,01/03/2016,15:29:00,Practical,COM00018H-AP2b/01,DAMS
01/03/2016,15:30:00,01/03/2016,16:29:00,Lecture,COM00001H-AL5/01,ARTS
02/03/2016,11:30:00,02/03/2016,12:29:00,Seminar,COM00018H-AS2/01,DAMS
03/03/2016,11:30:00,03/03/2016,12:29:00,Optional Activity,COM00016H-AD2/01,IAPT
04/03/2016,11:30:00,04/03/2016,13:29:00,Practical,COM00001H-AP2/01,ARTS
07/03/2016,17:30:00,07/03/2016,18:29:00,Lecture,COM00001H-AL4/01,ARTS
08/03/2016,13:30:00,08/03/2016,15:29:00,Practical,COM00018H-AP2b/01,DAMS
08/03/2016,15:30:00,08/03/2016,16:29:00,Lecture,COM00001H-AL5/01,ARTS
09/03/2016,11:30:00,09/03/2016,12:29:00,Seminar,COM00018H-AS2/01,DAMS
10/03/2016,11:30:00,10/03/2016,12:29:00,Optional Activity,COM00016H-AD2/01,IAPT
11/03/2016,11:30:00,11/03/2016,13:29:00,Practical,COM00001H-AP2/01,ARTS
13/04/2016,10:30:00,13/04/2016,11:29:00,Reminder,COM-U-FINALIST-C04sum/01,CV skills
20/04/2016,12:30:00,20/04/2016,13:29:00,Careers,COM-U-FINALIST-C05sum/01,Interview skills
22/04/2016,09:30:00,22/04/2016,11:29:00,Practical,COM00001H-AP3/01,ARTS
29/04/2016,09:30:00,29/04/2016,11:29:00,Practical,COM00001H-AP3/01,ARTS
06/05/2016,09:30:00,06/05/2016,11:29:00,Practical,COM00001H-AP3/01,ARTS
30/05/2016,15:30:00,30/05/2016,16:29:00,Careers,COM-z-ESR-Su8-ARTS-1H/01,Exam Script Review ARTS GRAT MAIG
08/06/2016,11:30:00,08/06/2016,12:29:00,Careers,COM-z-ESR-Su9-ICOT-6H/01,Exam Script Review ICOT PCOC
